{
  "uuid": "c26aaa8c1c2a4cb68acba0b4e5136132",
  "historyId": "MyStore Page As a User Able to search product-461370010",
  "fullName": "MyStore Page As a User Able to search product",
  "labels": [
    {
      "name": "thread",
      "value": "NonParallelWorker"
    },
    {
      "name": "host",
      "value": "MyStore Automation Report"
    },
    {
      "name": "feature",
      "value": "Search Product"
    },
    {
      "name": "tag",
      "value": "SearchProduct"
    },
    {
      "name": "tag",
      "value": "MyStore"
    }
  ],
  "links": [],
  "name": "MyStore Page As a User Able to search product",
  "status": "passed",
  "statusDetails": {
    "known": false,
    "muted": false,
    "flaky": false
  },
  "stage": "finished",
  "steps": [
    {
      "name": "Given  I am on Login page",
      "status": "passed",
      "statusDetails": {
        "known": false,
        "muted": false,
        "flaky": false
      },
      "stage": "finished",
      "steps": [],
      "attachments": [],
      "parameters": [],
      "start": 1629352523853,
      "stop": 1629352542986
    },
    {
      "name": "When  I press SignIn",
      "status": "passed",
      "statusDetails": {
        "known": false,
        "muted": false,
        "flaky": false
      },
      "stage": "finished",
      "steps": [],
      "attachments": [],
      "parameters": [],
      "start": 1629352542989,
      "stop": 1629352547030
    },
    {
      "name": "Then  I type manjugbmsc@hotmail.com and Test@1234 to the form",
      "status": "passed",
      "statusDetails": {
        "known": false,
        "muted": false,
        "flaky": false
      },
      "stage": "finished",
      "steps": [],
      "attachments": [],
      "parameters": [],
      "start": 1629352547030,
      "stop": 1629352547481
    },
    {
      "name": "When  I press Login",
      "status": "passed",
      "statusDetails": {
        "known": false,
        "muted": false,
        "flaky": false
      },
      "stage": "finished",
      "steps": [],
      "attachments": [],
      "parameters": [],
      "start": 1629352547481,
      "stop": 1629352550579
    }
  ],
  "attachments": [],
  "parameters": [
    {
      "name": "user",
      "value": "manjugbmsc@hotmail.com"
    },
    {
      "name": "psword",
      "value": "Test@1234"
    }
  ],
  "start": 1629352523819,
  "stop": 1629352550595
}