{
  "uuid": "a752612764a64c5680e37efc0d1f5bc6",
  "children": [
    "8c6c4f0bd798437eb394ad72bab3a5df"
  ],
  "befores": [
    {
      "name": "SetUpScenario [10000]",
      "status": "passed",
      "statusDetails": {
        "known": false,
        "muted": false,
        "flaky": false
      },
      "stage": "finished",
      "steps": [],
      "attachments": [],
      "parameters": [],
      "start": 1629351522120,
      "stop": 1629351542025
    }
  ],
  "afters": [
    {
      "name": "TearDownScenario [10000]",
      "status": "passed",
      "statusDetails": {
        "known": false,
        "muted": false,
        "flaky": false
      },
      "stage": "finished",
      "steps": [],
      "attachments": [],
      "parameters": [],
      "start": 1629351572354,
      "stop": 1629351578015
    }
  ],
  "links": [],
  "start": 1629351522112,
  "stop": 1629351578298
}