{
  "uuid": "94b90b865c99469cb8211f66f73d22e5",
  "children": [
    "62cb6945b8cc4b629f17ea67f0bb9e48"
  ],
  "befores": [
    {
      "name": "SetUpScenario [10000]",
      "status": "passed",
      "statusDetails": {
        "known": false,
        "muted": false,
        "flaky": false
      },
      "stage": "finished",
      "steps": [],
      "attachments": [],
      "parameters": [],
      "start": 1629356529792,
      "stop": 1629356558134
    }
  ],
  "afters": [
    {
      "name": "TearDownScenario [10000]",
      "status": "passed",
      "statusDetails": {
        "known": false,
        "muted": false,
        "flaky": false
      },
      "stage": "finished",
      "steps": [],
      "attachments": [],
      "parameters": [],
      "start": 1629356620397,
      "stop": 1629356680787
    }
  ],
  "links": [],
  "start": 1629356529779,
  "stop": 1629356680863
}