{
  "uuid": "312e2c2f-94ff-4e57-970e-0bb5dfecefa5-tc-0-1001",
  "name": "MyStoreAtataFrameWork.DataDrivenTests.LoginWithDifferentCreds(\"manjugbmsc@hotmail.com\",\"Test@1234\")",
  "children": [
    "44e66782-a9b5-4098-a335-31f31fb562f6-tr-0-1002"
  ],
  "befores": [
    {
      "name": "SetUp",
      "status": "passed",
      "statusDetails": {
        "known": false,
        "muted": false,
        "flaky": false
      },
      "stage": "finished",
      "steps": [],
      "attachments": [],
      "parameters": [],
      "start": 1629357126733,
      "stop": 1629357126733
    }
  ],
  "afters": [
    {
      "name": "TearDown",
      "status": "failed",
      "statusDetails": {
        "known": false,
        "muted": false,
        "flaky": false,
        "message": "OpenQA.Selenium.WebDriverException : The HTTP request to the remote WebDriver server for URL http://localhost:63973/session/ec194bae5536ed5736a51b12f5f16d15/url timed out after 60 seconds.\r\n  ----> System.Net.WebException : The request was aborted: The operation has timed out.\r\nTearDown : OpenQA.Selenium.WebDriverException : The HTTP request to the remote WebDriver server for URL http://localhost:63973/session/ec194bae5536ed5736a51b12f5f16d15/screenshot timed out after 60 seconds.\r\n  ----> System.Net.WebException : The request was aborted: The operation has timed out.",
        "trace": "   at OpenQA.Selenium.Remote.HttpCommandExecutor.MakeHttpRequest(HttpRequestInfo requestInfo)\r\n   at OpenQA.Selenium.Remote.HttpCommandExecutor.Execute(Command commandToExecute)\r\n   at OpenQA.Selenium.Remote.DriverServiceCommandExecutor.Execute(Command commandToExecute)\r\n   at OpenQA.Selenium.Remote.RemoteWebDriver.Execute(String driverCommandToExecute, Dictionary`2 parameters)\r\n   at OpenQA.Selenium.Remote.RemoteWebDriver.set_Url(String value)\r\n   at OpenQA.Selenium.Remote.RemoteNavigator.GoToUrl(Uri url)\r\n   at Atata.AtataNavigator.Navigate(Uri uri)\r\n   at Atata.AtataNavigator.ToUrl(String url)\r\n   at Atata.Go.ToUrl(String url)\r\n   at Atata.PageObject`1.Navigate()\r\n   at Atata.PageObject`1.Init()\r\n   at Atata.AtataNavigator.To[T](T pageObject, GoOptions options)\r\n   at Atata.AtataNavigator.To[T](T pageObject, String url, Boolean navigate, Boolean temporarily)\r\n   at Atata.Go.To[T](T pageObject, String url, Boolean navigate, Boolean temporarily)\r\n   at MyStoreAtataFrameWork.DataDrivenTests.LoginWithDifferentCreds(LoginModel model) in C:\\Users\\manju\\source\\repos\\MyStoreAtataFrameWork\\MyStoreAtataFrameWork\\Tests\\DataDrivenTests.cs:line 23\r\n--WebException\r\n   at System.Net.HttpWebRequest.GetResponse()\r\n   at OpenQA.Selenium.Remote.HttpCommandExecutor.MakeHttpRequest(HttpRequestInfo requestInfo)\r\n--TearDown\r\n   at OpenQA.Selenium.Remote.HttpCommandExecutor.MakeHttpRequest(HttpRequestInfo requestInfo)\r\n   at OpenQA.Selenium.Remote.HttpCommandExecutor.Execute(Command commandToExecute)\r\n   at OpenQA.Selenium.Remote.DriverServiceCommandExecutor.Execute(Command commandToExecute)\r\n   at OpenQA.Selenium.Remote.RemoteWebDriver.Execute(String driverCommandToExecute, Dictionary`2 parameters)\r\n   at OpenQA.Selenium.Remote.RemoteWebDriver.GetScreenshot()\r\n   at MyStoreAtataFrameWork.UITestFixture.AddAttachmentAfter() in C:\\Users\\manju\\source\\repos\\MyStoreAtataFrameWork\\MyStoreAtataFrameWork\\UITestFixture.cs:line 28\r\n   at MyStoreAtataFrameWork.UITestFixture.TearDown() in C:\\Users\\manju\\source\\repos\\MyStoreAtataFrameWork\\MyStoreAtataFrameWork\\UITestFixture.cs:line 58\r\n--WebException\r\n   at System.Net.HttpWebRequest.GetResponse()\r\n   at OpenQA.Selenium.Remote.HttpCommandExecutor.MakeHttpRequest(HttpRequestInfo requestInfo)"
      },
      "stage": "finished",
      "steps": [],
      "attachments": [],
      "parameters": [],
      "start": 1629357126743,
      "stop": 1629357126743
    },
    {
      "name": "AddAttachmentAfter",
      "status": "failed",
      "statusDetails": {
        "known": false,
        "muted": false,
        "flaky": false,
        "message": "OpenQA.Selenium.WebDriverException : The HTTP request to the remote WebDriver server for URL http://localhost:63973/session/ec194bae5536ed5736a51b12f5f16d15/url timed out after 60 seconds.\r\n  ----> System.Net.WebException : The request was aborted: The operation has timed out.\r\nTearDown : OpenQA.Selenium.WebDriverException : The HTTP request to the remote WebDriver server for URL http://localhost:63973/session/ec194bae5536ed5736a51b12f5f16d15/screenshot timed out after 60 seconds.\r\n  ----> System.Net.WebException : The request was aborted: The operation has timed out.",
        "trace": "   at OpenQA.Selenium.Remote.HttpCommandExecutor.MakeHttpRequest(HttpRequestInfo requestInfo)\r\n   at OpenQA.Selenium.Remote.HttpCommandExecutor.Execute(Command commandToExecute)\r\n   at OpenQA.Selenium.Remote.DriverServiceCommandExecutor.Execute(Command commandToExecute)\r\n   at OpenQA.Selenium.Remote.RemoteWebDriver.Execute(String driverCommandToExecute, Dictionary`2 parameters)\r\n   at OpenQA.Selenium.Remote.RemoteWebDriver.set_Url(String value)\r\n   at OpenQA.Selenium.Remote.RemoteNavigator.GoToUrl(Uri url)\r\n   at Atata.AtataNavigator.Navigate(Uri uri)\r\n   at Atata.AtataNavigator.ToUrl(String url)\r\n   at Atata.Go.ToUrl(String url)\r\n   at Atata.PageObject`1.Navigate()\r\n   at Atata.PageObject`1.Init()\r\n   at Atata.AtataNavigator.To[T](T pageObject, GoOptions options)\r\n   at Atata.AtataNavigator.To[T](T pageObject, String url, Boolean navigate, Boolean temporarily)\r\n   at Atata.Go.To[T](T pageObject, String url, Boolean navigate, Boolean temporarily)\r\n   at MyStoreAtataFrameWork.DataDrivenTests.LoginWithDifferentCreds(LoginModel model) in C:\\Users\\manju\\source\\repos\\MyStoreAtataFrameWork\\MyStoreAtataFrameWork\\Tests\\DataDrivenTests.cs:line 23\r\n--WebException\r\n   at System.Net.HttpWebRequest.GetResponse()\r\n   at OpenQA.Selenium.Remote.HttpCommandExecutor.MakeHttpRequest(HttpRequestInfo requestInfo)\r\n--TearDown\r\n   at OpenQA.Selenium.Remote.HttpCommandExecutor.MakeHttpRequest(HttpRequestInfo requestInfo)\r\n   at OpenQA.Selenium.Remote.HttpCommandExecutor.Execute(Command commandToExecute)\r\n   at OpenQA.Selenium.Remote.DriverServiceCommandExecutor.Execute(Command commandToExecute)\r\n   at OpenQA.Selenium.Remote.RemoteWebDriver.Execute(String driverCommandToExecute, Dictionary`2 parameters)\r\n   at OpenQA.Selenium.Remote.RemoteWebDriver.GetScreenshot()\r\n   at MyStoreAtataFrameWork.UITestFixture.AddAttachmentAfter() in C:\\Users\\manju\\source\\repos\\MyStoreAtataFrameWork\\MyStoreAtataFrameWork\\UITestFixture.cs:line 28\r\n   at MyStoreAtataFrameWork.UITestFixture.TearDown() in C:\\Users\\manju\\source\\repos\\MyStoreAtataFrameWork\\MyStoreAtataFrameWork\\UITestFixture.cs:line 58\r\n--WebException\r\n   at System.Net.HttpWebRequest.GetResponse()\r\n   at OpenQA.Selenium.Remote.HttpCommandExecutor.MakeHttpRequest(HttpRequestInfo requestInfo)"
      },
      "stage": "finished",
      "steps": [],
      "attachments": [],
      "parameters": [],
      "start": 1629357126756,
      "stop": 1629357126756
    }
  ],
  "links": [],
  "start": 1629356998825,
  "stop": 1629357127361
}