{
  "uuid": "b07e1783924e482a980464afaad66a01",
  "historyId": "MyStore Page As a User Able to search product-461370010",
  "fullName": "MyStore Page As a User Able to search product",
  "labels": [
    {
      "name": "thread",
      "value": "NonParallelWorker"
    },
    {
      "name": "host",
      "value": "MyStore Automation Report"
    },
    {
      "name": "feature",
      "value": "Search Product"
    },
    {
      "name": "tag",
      "value": "SearchProduct"
    },
    {
      "name": "tag",
      "value": "MyStore"
    }
  ],
  "links": [],
  "name": "MyStore Page As a User Able to search product",
  "status": "passed",
  "statusDetails": {
    "known": false,
    "muted": false,
    "flaky": false
  },
  "stage": "finished",
  "steps": [
    {
      "name": "Given  I am on Login page",
      "status": "passed",
      "statusDetails": {
        "known": false,
        "muted": false,
        "flaky": false
      },
      "stage": "finished",
      "steps": [],
      "attachments": [],
      "parameters": [],
      "start": 1629350626241,
      "stop": 1629350640655
    },
    {
      "name": "When  I press SignIn",
      "status": "passed",
      "statusDetails": {
        "known": false,
        "muted": false,
        "flaky": false
      },
      "stage": "finished",
      "steps": [],
      "attachments": [],
      "parameters": [],
      "start": 1629350640657,
      "stop": 1629350644534
    },
    {
      "name": "Then  I type \"manjugbmsc@hotmail.com\" and \"Test@1234\" to the form",
      "status": "passed",
      "statusDetails": {
        "known": false,
        "muted": false,
        "flaky": false
      },
      "stage": "finished",
      "steps": [],
      "attachments": [],
      "parameters": [],
      "start": 1629350644535,
      "stop": 1629350645555
    }
  ],
  "attachments": [],
  "parameters": [
    {
      "name": "user",
      "value": "manjugbmsc@hotmail.com"
    },
    {
      "name": "psword",
      "value": "Test@1234"
    }
  ],
  "start": 1629350626215,
  "stop": 1629350645729
}